<?xml version="1.0" encoding="utf-8"?>
<svg xmlns="http://www.w3.org/2000/svg" height="48" width="48" viewBox="0 0 48 48">
  <g>
    <path id="path1" transform="rotate(0,24,24) translate(13.5593801140785,11) scale(0.8125,0.8125)  " fill="#0C5F9A" d="M4.9999981,24.100001L18.999991,24.100001 18.999991,26.100001 4.9999981,26.100001z M9.6999955,19L18.999991,19 18.999991,21 9.6999955,21z M3.3999987,2.7000003C2.999999,2.7000003,2.6999989,3,2.6999989,3.4000001L2.6999989,28.699999C2.6999989,29.100001,2.999999,29.4,3.3999987,29.4L22.299989,29.4C22.699989,29.4,22.999989,29.100001,22.999989,28.699999L22.999989,12.2 17.999991,12.2C13.699993,12.5,13.599994,8.6000001,13.599994,8.6L13.599994,2.7000003z M3.3999987,0L14.799993,0 17.299992,2.6000004 23.299989,8.9000002 25.699987,11.5 25.699987,28.600001C25.699987,30.5,24.199988,32,22.299989,32L3.3999987,32C1.499999,32,0,30.5,0,28.600001L0,3.4000001C0,1.5,1.499999,0,3.3999987,0z" />
  </g>
</svg>

