<?xml version="1.0" encoding="utf-8"?>
<svg xmlns="http://www.w3.org/2000/svg" height="48" width="48" viewBox="0 0 48 48">
  <g>
    <path id="path1" transform="rotate(0,24,24) translate(8,8) scale(1,1)  " fill="#333333" d="M15.799988,8.980011L19.278992,8.980011 26.759033,16.459991 25.02002,18.200012 19.234009,23.985992 15.843994,23.985992 15.799988,23.942017 22.049988,17.690002 5.559021,17.690002 5.559021,15.231018 22.049988,15.231018z M16,1.9949951C8.2650146,1.9949951 1.9950256,8.2650146 1.9950256,16 1.9950256,23.735016 8.2650146,30.005005 16,30.005005 23.734985,30.005005 30.005005,23.735016 30.005005,16 30.005005,8.2650146 23.734985,1.9949951 16,1.9949951z M16,0C24.837036,0 32,7.1629944 32,16 32,24.837006 24.837036,32 16,32 7.1630249,32 0,24.837006 0,16 0,7.1629944 7.1630249,0 16,0z" />
  </g>
</svg>

